^\\MAC\HOME\DESKTOP\VSCODE\COMPONE\SPIKE5 3\SPIKE5\BOX.CPP|\\MAC\HOME\DESKTOP\VSCODE\COMPONE\SPIKE5 3\SPIKE5\CANBEATTACKED.CPP|\\MAC\HOME\DESKTOP\VSCODE\COMPONE\SPIKE5 3\SPIKE5\DAMAGE.CPP|\\MAC\HOME\DESKTOP\VSCODE\COMPONE\SPIKE5 3\SPIKE5\DOOR.CPP|\\MAC\HOME\DESKTOP\VSCODE\COMPONE\SPIKE5 3\SPIKE5\GAMEPLAYSTATE.CPP|\\MAC\HOME\DESKTOP\VSCODE\COMPONE\SPIKE5 3\SPIKE5\GAMESTATE.CPP|\\MAC\HOME\DESKTOP\VSCODE\COMPONE\SPIKE5 3\SPIKE5\HEALTH.CPP|\\MAC\HOME\DESKTOP\VSCODE\COMPONE\SPIKE5 3\SPIKE5\MAIN.CPP|\\MAC\HOME\DESKTOP\VSCODE\COMPONE\SPIKE5 3\SPIKE5\PLAYER.CPP|\\MAC\HOME\DESKTOP\VSCODE\COMPONE\SPIKE5 3\SPIKE5\ROOM.CPP|\\MAC\HOME\DESKTOP\VSCODE\COMPONE\SPIKE5 3\SPIKE5\STATEMANAGER.CPP
\\MAC\HOME\DESKTOP\VSCODE\COMPONE\SPIKE5 3\SPIKE5\DEBUG\VC140.PDB
\\MAC\HOME\DESKTOP\VSCODE\COMPONE\SPIKE5 3\SPIKE5\DEBUG\VC140.IDB
\\MAC\HOME\DESKTOP\VSCODE\COMPONE\SPIKE5 3\SPIKE5\DEBUG\BOX.OBJ
\\MAC\HOME\DESKTOP\VSCODE\COMPONE\SPIKE5 3\SPIKE5\DEBUG\CANBEATTACKED.OBJ
\\MAC\HOME\DESKTOP\VSCODE\COMPONE\SPIKE5 3\SPIKE5\DEBUG\DAMAGE.OBJ
\\MAC\HOME\DESKTOP\VSCODE\COMPONE\SPIKE5 3\SPIKE5\DEBUG\DOOR.OBJ
\\MAC\HOME\DESKTOP\VSCODE\COMPONE\SPIKE5 3\SPIKE5\DEBUG\GAMEPLAYSTATE.OBJ
\\MAC\HOME\DESKTOP\VSCODE\COMPONE\SPIKE5 3\SPIKE5\DEBUG\GAMESTATE.OBJ
\\MAC\HOME\DESKTOP\VSCODE\COMPONE\SPIKE5 3\SPIKE5\DEBUG\HEALTH.OBJ
\\MAC\HOME\DESKTOP\VSCODE\COMPONE\SPIKE5 3\SPIKE5\DEBUG\MAIN.OBJ
\\MAC\HOME\DESKTOP\VSCODE\COMPONE\SPIKE5 3\SPIKE5\DEBUG\PLAYER.OBJ
\\MAC\HOME\DESKTOP\VSCODE\COMPONE\SPIKE5 3\SPIKE5\DEBUG\ROOM.OBJ
\\MAC\HOME\DESKTOP\VSCODE\COMPONE\SPIKE5 3\SPIKE5\DEBUG\STATEMANAGER.OBJ
^\\MAC\HOME\DESKTOP\VSCODE\COMPONE\SPIKE5 3\SPIKE5\BOX.CPP
\\MAC\HOME\DESKTOP\VSCODE\COMPONE\SPIKE5 3\SPIKE5\DEBUG\VC140.PDB
\\MAC\HOME\DESKTOP\VSCODE\COMPONE\SPIKE5 3\SPIKE5\DEBUG\VC140.IDB
\\MAC\HOME\DESKTOP\VSCODE\COMPONE\SPIKE5 3\SPIKE5\DEBUG\BOX.OBJ
^\\MAC\HOME\DESKTOP\VSCODE\COMPONE\SPIKE5 3\SPIKE5\CANBEATTACKED.CPP
\\MAC\HOME\DESKTOP\VSCODE\COMPONE\SPIKE5 3\SPIKE5\DEBUG\VC140.PDB
^\\MAC\HOME\DESKTOP\VSCODE\COMPONE\SPIKE5 3\SPIKE5\DAMAGE.CPP
\\MAC\HOME\DESKTOP\VSCODE\COMPONE\SPIKE5 3\SPIKE5\DEBUG\VC140.PDB
^\\MAC\HOME\DESKTOP\VSCODE\COMPONE\SPIKE5 3\SPIKE5\DOOR.CPP
\\MAC\HOME\DESKTOP\VSCODE\COMPONE\SPIKE5 3\SPIKE5\DEBUG\VC140.PDB
^\\MAC\HOME\DESKTOP\VSCODE\COMPONE\SPIKE5 3\SPIKE5\GAMEPLAYSTATE.CPP
\\MAC\HOME\DESKTOP\VSCODE\COMPONE\SPIKE5 3\SPIKE5\DEBUG\VC140.PDB
\\MAC\HOME\DESKTOP\VSCODE\COMPONE\SPIKE5 3\SPIKE5\DEBUG\VC140.IDB
\\MAC\HOME\DESKTOP\VSCODE\COMPONE\SPIKE5 3\SPIKE5\DEBUG\GAMEPLAYSTATE.OBJ
^\\MAC\HOME\DESKTOP\VSCODE\COMPONE\SPIKE5 3\SPIKE5\GAMESTATE.CPP
\\MAC\HOME\DESKTOP\VSCODE\COMPONE\SPIKE5 3\SPIKE5\DEBUG\VC140.PDB
^\\MAC\HOME\DESKTOP\VSCODE\COMPONE\SPIKE5 3\SPIKE5\HEALTH.CPP
\\MAC\HOME\DESKTOP\VSCODE\COMPONE\SPIKE5 3\SPIKE5\DEBUG\VC140.PDB
^\\MAC\HOME\DESKTOP\VSCODE\COMPONE\SPIKE5 3\SPIKE5\MAIN.CPP
\\MAC\HOME\DESKTOP\VSCODE\COMPONE\SPIKE5 3\SPIKE5\DEBUG\VC140.PDB
^\\MAC\HOME\DESKTOP\VSCODE\COMPONE\SPIKE5 3\SPIKE5\PLAYER.CPP
\\MAC\HOME\DESKTOP\VSCODE\COMPONE\SPIKE5 3\SPIKE5\DEBUG\VC140.PDB
\\MAC\HOME\DESKTOP\VSCODE\COMPONE\SPIKE5 3\SPIKE5\DEBUG\VC140.IDB
\\MAC\HOME\DESKTOP\VSCODE\COMPONE\SPIKE5 3\SPIKE5\DEBUG\PLAYER.OBJ
^\\MAC\HOME\DESKTOP\VSCODE\COMPONE\SPIKE5 3\SPIKE5\ROOM.CPP
\\MAC\HOME\DESKTOP\VSCODE\COMPONE\SPIKE5 3\SPIKE5\DEBUG\VC140.PDB
^\\MAC\HOME\DESKTOP\VSCODE\COMPONE\SPIKE5 3\SPIKE5\STATEMANAGER.CPP
\\MAC\HOME\DESKTOP\VSCODE\COMPONE\SPIKE5 3\SPIKE5\DEBUG\VC140.PDB
^\\MAC\HOME\DESKTOP\VSCODE\COMPONE\SPIKE5 3\SPIKE5\MESSAGING.CPP
\\MAC\HOME\DESKTOP\VSCODE\COMPONE\SPIKE5 3\SPIKE5\DEBUG\VC140.PDB
\\MAC\HOME\DESKTOP\VSCODE\COMPONE\SPIKE5 3\SPIKE5\DEBUG\VC140.IDB
\\MAC\HOME\DESKTOP\VSCODE\COMPONE\SPIKE5 3\SPIKE5\DEBUG\MESSAGING.OBJ
^\\MAC\HOME\DESKTOP\VSCODE\COMPONE\SPIKE5 3\SPIKE5\BOX.CPP|\\MAC\HOME\DESKTOP\VSCODE\COMPONE\SPIKE5 3\SPIKE5\GAMEPLAYSTATE.CPP|\\MAC\HOME\DESKTOP\VSCODE\COMPONE\SPIKE5 3\SPIKE5\MAIN.CPP|\\MAC\HOME\DESKTOP\VSCODE\COMPONE\SPIKE5 3\SPIKE5\MESSAGING.CPP|\\MAC\HOME\DESKTOP\VSCODE\COMPONE\SPIKE5 3\SPIKE5\PLAYER.CPP|\\MAC\HOME\DESKTOP\VSCODE\COMPONE\SPIKE5 3\SPIKE5\STATEMANAGER.CPP
\\MAC\HOME\DESKTOP\VSCODE\COMPONE\SPIKE5 3\SPIKE5\DEBUG\VC140.PDB
\\MAC\HOME\DESKTOP\VSCODE\COMPONE\SPIKE5 3\SPIKE5\DEBUG\VC140.IDB
\\MAC\HOME\DESKTOP\VSCODE\COMPONE\SPIKE5 3\SPIKE5\DEBUG\BOX.OBJ
\\MAC\HOME\DESKTOP\VSCODE\COMPONE\SPIKE5 3\SPIKE5\DEBUG\MESSAGING.OBJ
\\MAC\HOME\DESKTOP\VSCODE\COMPONE\SPIKE5 3\SPIKE5\DEBUG\PLAYER.OBJ
\\MAC\HOME\DESKTOP\VSCODE\COMPONE\SPIKE5 3\SPIKE5\DEBUG\GAMEPLAYSTATE.OBJ
\\MAC\HOME\DESKTOP\VSCODE\COMPONE\SPIKE5 3\SPIKE5\DEBUG\MAIN.OBJ
\\MAC\HOME\DESKTOP\VSCODE\COMPONE\SPIKE5 3\SPIKE5\DEBUG\STATEMANAGER.OBJ
^\\MAC\HOME\DESKTOP\VSCODE\COMPONE\SPIKE5 3\SPIKE5\MESSAGING.CPP|\\MAC\HOME\DESKTOP\VSCODE\COMPONE\SPIKE5 3\SPIKE5\PLAYER.CPP
\\MAC\HOME\DESKTOP\VSCODE\COMPONE\SPIKE5 3\SPIKE5\DEBUG\VC140.PDB
\\MAC\HOME\DESKTOP\VSCODE\COMPONE\SPIKE5 3\SPIKE5\DEBUG\VC140.IDB
\\MAC\HOME\DESKTOP\VSCODE\COMPONE\SPIKE5 3\SPIKE5\DEBUG\MESSAGING.OBJ
\\MAC\HOME\DESKTOP\VSCODE\COMPONE\SPIKE5 3\SPIKE5\DEBUG\PLAYER.OBJ
^\\MAC\HOME\DESKTOP\VSCODE\COMPONE\SPIKE5 3\SPIKE5\BOX.CPP|\\MAC\HOME\DESKTOP\VSCODE\COMPONE\SPIKE5 3\SPIKE5\GAMEPLAYSTATE.CPP|\\MAC\HOME\DESKTOP\VSCODE\COMPONE\SPIKE5 3\SPIKE5\MAIN.CPP|\\MAC\HOME\DESKTOP\VSCODE\COMPONE\SPIKE5 3\SPIKE5\PLAYER.CPP|\\MAC\HOME\DESKTOP\VSCODE\COMPONE\SPIKE5 3\SPIKE5\STATEMANAGER.CPP
\\MAC\HOME\DESKTOP\VSCODE\COMPONE\SPIKE5 3\SPIKE5\DEBUG\VC140.PDB
\\MAC\HOME\DESKTOP\VSCODE\COMPONE\SPIKE5 3\SPIKE5\DEBUG\VC140.IDB
\\MAC\HOME\DESKTOP\VSCODE\COMPONE\SPIKE5 3\SPIKE5\DEBUG\PLAYER.OBJ
\\MAC\HOME\DESKTOP\VSCODE\COMPONE\SPIKE5 3\SPIKE5\DEBUG\BOX.OBJ
\\MAC\HOME\DESKTOP\VSCODE\COMPONE\SPIKE5 3\SPIKE5\DEBUG\GAMEPLAYSTATE.OBJ
\\MAC\HOME\DESKTOP\VSCODE\COMPONE\SPIKE5 3\SPIKE5\DEBUG\MAIN.OBJ
\\MAC\HOME\DESKTOP\VSCODE\COMPONE\SPIKE5 3\SPIKE5\DEBUG\STATEMANAGER.OBJ
^\\MAC\HOME\DESKTOP\VSCODE\COMPONE\SPIKE5 3\SPIKE5\BOX.CPP|\\MAC\HOME\DESKTOP\VSCODE\COMPONE\SPIKE5 3\SPIKE5\GAMEPLAYSTATE.CPP|\\MAC\HOME\DESKTOP\VSCODE\COMPONE\SPIKE5 3\SPIKE5\MAIN.CPP|\\MAC\HOME\DESKTOP\VSCODE\COMPONE\SPIKE5 3\SPIKE5\STATEMANAGER.CPP
\\MAC\HOME\DESKTOP\VSCODE\COMPONE\SPIKE5 3\SPIKE5\DEBUG\VC140.PDB
\\MAC\HOME\DESKTOP\VSCODE\COMPONE\SPIKE5 3\SPIKE5\DEBUG\VC140.IDB
^\\MAC\HOME\DESKTOP\VSCODE\COMPONE\SPIKE5 3\SPIKE5\BOX.CPP|\\MAC\HOME\DESKTOP\VSCODE\COMPONE\SPIKE5 3\SPIKE5\PLAYER.CPP
\\MAC\HOME\DESKTOP\VSCODE\COMPONE\SPIKE5 3\SPIKE5\DEBUG\VC140.PDB
\\MAC\HOME\DESKTOP\VSCODE\COMPONE\SPIKE5 3\SPIKE5\DEBUG\VC140.IDB
\\MAC\HOME\DESKTOP\VSCODE\COMPONE\SPIKE5 3\SPIKE5\DEBUG\BOX.OBJ
\\MAC\HOME\DESKTOP\VSCODE\COMPONE\SPIKE5 3\SPIKE5\DEBUG\PLAYER.OBJ
^\\MAC\HOME\DESKTOP\VSCODE\COMPONE\SPIKE5 3\SPIKE5\BOX.CPP|\\MAC\HOME\DESKTOP\VSCODE\COMPONE\SPIKE5 3\SPIKE5\GAMEPLAYSTATE.CPP|\\MAC\HOME\DESKTOP\VSCODE\COMPONE\SPIKE5 3\SPIKE5\HEALTH.CPP|\\MAC\HOME\DESKTOP\VSCODE\COMPONE\SPIKE5 3\SPIKE5\MAIN.CPP|\\MAC\HOME\DESKTOP\VSCODE\COMPONE\SPIKE5 3\SPIKE5\PLAYER.CPP|\\MAC\HOME\DESKTOP\VSCODE\COMPONE\SPIKE5 3\SPIKE5\STATEMANAGER.CPP
\\MAC\HOME\DESKTOP\VSCODE\COMPONE\SPIKE5 3\SPIKE5\DEBUG\VC140.PDB
\\MAC\HOME\DESKTOP\VSCODE\COMPONE\SPIKE5 3\SPIKE5\DEBUG\VC140.IDB
\\MAC\HOME\DESKTOP\VSCODE\COMPONE\SPIKE5 3\SPIKE5\DEBUG\BOX.OBJ
\\MAC\HOME\DESKTOP\VSCODE\COMPONE\SPIKE5 3\SPIKE5\DEBUG\PLAYER.OBJ
\\MAC\HOME\DESKTOP\VSCODE\COMPONE\SPIKE5 3\SPIKE5\DEBUG\HEALTH.OBJ
