^C:\USERS\LEWIS\DESKTOP\SEM2\GRIDWORLD\GRIDWORLD\DEBUG\MAIN.OBJ
C:\USERS\LEWIS\DESKTOP\SEM2\GRIDWORLD\DEBUG\GRIDWORLD.EXE
C:\USERS\LEWIS\DESKTOP\SEM2\GRIDWORLD\GRIDWORLD\DEBUG\GRIDWORLD.EXE.INTERMEDIATE.MANIFEST
C:\USERS\LEWIS\DESKTOP\SEM2\GRIDWORLD\DEBUG\GRIDWORLD.PDB
^C:\USERS\LEWIS\DESKTOP\UNI_YEAR1\SEM2\GRIDWORLD\GRIDWORLD\DEBUG\MAIN.OBJ
C:\USERS\LEWIS\DESKTOP\UNI_YEAR1\SEM2\GRIDWORLD\DEBUG\GRIDWORLD.EXE
C:\USERS\LEWIS\DESKTOP\UNI_YEAR1\SEM2\GRIDWORLD\GRIDWORLD\DEBUG\GRIDWORLD.EXE.INTERMEDIATE.MANIFEST
C:\USERS\LEWIS\DESKTOP\UNI_YEAR1\SEM2\GRIDWORLD\DEBUG\GRIDWORLD.PDB
^C:\USERS\LEWIS\DESKTOP\GAMESDEV\SPIKE4\GRIDWORLD\GRIDWORLD\DEBUG\MAIN.OBJ
C:\USERS\LEWIS\DESKTOP\GAMESDEV\SPIKE4\GRIDWORLD\DEBUG\GRIDWORLD.EXE
C:\USERS\LEWIS\DESKTOP\GAMESDEV\SPIKE4\GRIDWORLD\GRIDWORLD\DEBUG\GRIDWORLD.EXE.INTERMEDIATE.MANIFEST
C:\USERS\LEWIS\DESKTOP\GAMESDEV\SPIKE4\GRIDWORLD\DEBUG\GRIDWORLD.PDB
