^C:\USERS\LEWIS\DESKTOP\GAMEFINAL\SPIKE13(N)\SPIKE5\SPIKE5\COMMAND.CPP|C:\USERS\LEWIS\DESKTOP\GAMEFINAL\SPIKE13(N)\SPIKE5\SPIKE5\COMMANDMANAGER.CPP|C:\USERS\LEWIS\DESKTOP\GAMEFINAL\SPIKE13(N)\SPIKE5\SPIKE5\DOOR.CPP|C:\USERS\LEWIS\DESKTOP\GAMEFINAL\SPIKE13(N)\SPIKE5\SPIKE5\GAMEPLAYSTATE.CPP|C:\USERS\LEWIS\DESKTOP\GAMEFINAL\SPIKE13(N)\SPIKE5\SPIKE5\GAMESTATE.CPP|C:\USERS\LEWIS\DESKTOP\GAMEFINAL\SPIKE13(N)\SPIKE5\SPIKE5\GOCOMMAND.CPP|C:\USERS\LEWIS\DESKTOP\GAMEFINAL\SPIKE13(N)\SPIKE5\SPIKE5\INVENTORY.CPP|C:\USERS\LEWIS\DESKTOP\GAMEFINAL\SPIKE13(N)\SPIKE5\SPIKE5\ITEM.CPP|C:\USERS\LEWIS\DESKTOP\GAMEFINAL\SPIKE13(N)\SPIKE5\SPIKE5\LOOKCOMMAND.CPP|C:\USERS\LEWIS\DESKTOP\GAMEFINAL\SPIKE13(N)\SPIKE5\SPIKE5\MAIN.CPP|C:\USERS\LEWIS\DESKTOP\GAMEFINAL\SPIKE13(N)\SPIKE5\SPIKE5\OPENCOMMAND.CPP|C:\USERS\LEWIS\DESKTOP\GAMEFINAL\SPIKE13(N)\SPIKE5\SPIKE5\ROOM.CPP|C:\USERS\LEWIS\DESKTOP\GAMEFINAL\SPIKE13(N)\SPIKE5\SPIKE5\STATEMANAGER.CPP|C:\USERS\LEWIS\DESKTOP\GAMEFINAL\SPIKE13(N)\SPIKE5\SPIKE5\TAKECOMMAND.CPP
C:\USERS\LEWIS\DESKTOP\GAMEFINAL\SPIKE13(N)\SPIKE5\SPIKE5\DEBUG\VC140.PDB
C:\USERS\LEWIS\DESKTOP\GAMEFINAL\SPIKE13(N)\SPIKE5\SPIKE5\DEBUG\VC140.IDB
C:\USERS\LEWIS\DESKTOP\GAMEFINAL\SPIKE13(N)\SPIKE5\SPIKE5\DEBUG\COMMAND.OBJ
C:\USERS\LEWIS\DESKTOP\GAMEFINAL\SPIKE13(N)\SPIKE5\SPIKE5\DEBUG\COMMANDMANAGER.OBJ
C:\USERS\LEWIS\DESKTOP\GAMEFINAL\SPIKE13(N)\SPIKE5\SPIKE5\DEBUG\DOOR.OBJ
C:\USERS\LEWIS\DESKTOP\GAMEFINAL\SPIKE13(N)\SPIKE5\SPIKE5\DEBUG\GAMEPLAYSTATE.OBJ
C:\USERS\LEWIS\DESKTOP\GAMEFINAL\SPIKE13(N)\SPIKE5\SPIKE5\DEBUG\GAMESTATE.OBJ
C:\USERS\LEWIS\DESKTOP\GAMEFINAL\SPIKE13(N)\SPIKE5\SPIKE5\DEBUG\GOCOMMAND.OBJ
C:\USERS\LEWIS\DESKTOP\GAMEFINAL\SPIKE13(N)\SPIKE5\SPIKE5\DEBUG\INVENTORY.OBJ
C:\USERS\LEWIS\DESKTOP\GAMEFINAL\SPIKE13(N)\SPIKE5\SPIKE5\DEBUG\ITEM.OBJ
C:\USERS\LEWIS\DESKTOP\GAMEFINAL\SPIKE13(N)\SPIKE5\SPIKE5\DEBUG\LOOKCOMMAND.OBJ
C:\USERS\LEWIS\DESKTOP\GAMEFINAL\SPIKE13(N)\SPIKE5\SPIKE5\DEBUG\MAIN.OBJ
C:\USERS\LEWIS\DESKTOP\GAMEFINAL\SPIKE13(N)\SPIKE5\SPIKE5\DEBUG\OPENCOMMAND.OBJ
C:\USERS\LEWIS\DESKTOP\GAMEFINAL\SPIKE13(N)\SPIKE5\SPIKE5\DEBUG\ROOM.OBJ
C:\USERS\LEWIS\DESKTOP\GAMEFINAL\SPIKE13(N)\SPIKE5\SPIKE5\DEBUG\STATEMANAGER.OBJ
C:\USERS\LEWIS\DESKTOP\GAMEFINAL\SPIKE13(N)\SPIKE5\SPIKE5\DEBUG\TAKECOMMAND.OBJ
^C:\USERS\LEWIS\DESKTOP\GAMEFINAL\SPIKE13(N)\SPIKE5\SPIKE5\COMMAND.CPP
C:\USERS\LEWIS\DESKTOP\GAMEFINAL\SPIKE13(N)\SPIKE5\SPIKE5\DEBUG\VC140.PDB
^C:\USERS\LEWIS\DESKTOP\GAMEFINAL\SPIKE13(N)\SPIKE5\SPIKE5\COMMANDMANAGER.CPP
C:\USERS\LEWIS\DESKTOP\GAMEFINAL\SPIKE13(N)\SPIKE5\SPIKE5\DEBUG\VC140.PDB
^C:\USERS\LEWIS\DESKTOP\GAMEFINAL\SPIKE13(N)\SPIKE5\SPIKE5\DOOR.CPP
C:\USERS\LEWIS\DESKTOP\GAMEFINAL\SPIKE13(N)\SPIKE5\SPIKE5\DEBUG\VC140.PDB
^C:\USERS\LEWIS\DESKTOP\GAMEFINAL\SPIKE13(N)\SPIKE5\SPIKE5\GAMEPLAYSTATE.CPP
C:\USERS\LEWIS\DESKTOP\GAMEFINAL\SPIKE13(N)\SPIKE5\SPIKE5\DEBUG\VC140.PDB
^C:\USERS\LEWIS\DESKTOP\GAMEFINAL\SPIKE13(N)\SPIKE5\SPIKE5\GAMESTATE.CPP
C:\USERS\LEWIS\DESKTOP\GAMEFINAL\SPIKE13(N)\SPIKE5\SPIKE5\DEBUG\VC140.PDB
^C:\USERS\LEWIS\DESKTOP\GAMEFINAL\SPIKE13(N)\SPIKE5\SPIKE5\GOCOMMAND.CPP
C:\USERS\LEWIS\DESKTOP\GAMEFINAL\SPIKE13(N)\SPIKE5\SPIKE5\DEBUG\VC140.PDB
^C:\USERS\LEWIS\DESKTOP\GAMEFINAL\SPIKE13(N)\SPIKE5\SPIKE5\INVENTORY.CPP
C:\USERS\LEWIS\DESKTOP\GAMEFINAL\SPIKE13(N)\SPIKE5\SPIKE5\DEBUG\VC140.PDB
^C:\USERS\LEWIS\DESKTOP\GAMEFINAL\SPIKE13(N)\SPIKE5\SPIKE5\ITEM.CPP
C:\USERS\LEWIS\DESKTOP\GAMEFINAL\SPIKE13(N)\SPIKE5\SPIKE5\DEBUG\VC140.PDB
^C:\USERS\LEWIS\DESKTOP\GAMEFINAL\SPIKE13(N)\SPIKE5\SPIKE5\LOOKCOMMAND.CPP
C:\USERS\LEWIS\DESKTOP\GAMEFINAL\SPIKE13(N)\SPIKE5\SPIKE5\DEBUG\VC140.PDB
^C:\USERS\LEWIS\DESKTOP\GAMEFINAL\SPIKE13(N)\SPIKE5\SPIKE5\MAIN.CPP
C:\USERS\LEWIS\DESKTOP\GAMEFINAL\SPIKE13(N)\SPIKE5\SPIKE5\DEBUG\VC140.PDB
^C:\USERS\LEWIS\DESKTOP\GAMEFINAL\SPIKE13(N)\SPIKE5\SPIKE5\OPENCOMMAND.CPP
C:\USERS\LEWIS\DESKTOP\GAMEFINAL\SPIKE13(N)\SPIKE5\SPIKE5\DEBUG\VC140.PDB
^C:\USERS\LEWIS\DESKTOP\GAMEFINAL\SPIKE13(N)\SPIKE5\SPIKE5\ROOM.CPP
C:\USERS\LEWIS\DESKTOP\GAMEFINAL\SPIKE13(N)\SPIKE5\SPIKE5\DEBUG\VC140.PDB
^C:\USERS\LEWIS\DESKTOP\GAMEFINAL\SPIKE13(N)\SPIKE5\SPIKE5\STATEMANAGER.CPP
C:\USERS\LEWIS\DESKTOP\GAMEFINAL\SPIKE13(N)\SPIKE5\SPIKE5\DEBUG\VC140.PDB
^C:\USERS\LEWIS\DESKTOP\GAMEFINAL\SPIKE13(N)\SPIKE5\SPIKE5\TAKECOMMAND.CPP
C:\USERS\LEWIS\DESKTOP\GAMEFINAL\SPIKE13(N)\SPIKE5\SPIKE5\DEBUG\VC140.PDB
