^C:\USERS\LEWIS\DESKTOP\GAMEFINAL\SPIKE13(N)\SPIKE5\SPIKE5\DEBUG\COMMAND.OBJ|C:\USERS\LEWIS\DESKTOP\GAMEFINAL\SPIKE13(N)\SPIKE5\SPIKE5\DEBUG\COMMANDMANAGER.OBJ|C:\USERS\LEWIS\DESKTOP\GAMEFINAL\SPIKE13(N)\SPIKE5\SPIKE5\DEBUG\DOOR.OBJ|C:\USERS\LEWIS\DESKTOP\GAMEFINAL\SPIKE13(N)\SPIKE5\SPIKE5\DEBUG\GAMEPLAYSTATE.OBJ|C:\USERS\LEWIS\DESKTOP\GAMEFINAL\SPIKE13(N)\SPIKE5\SPIKE5\DEBUG\GAMESTATE.OBJ|C:\USERS\LEWIS\DESKTOP\GAMEFINAL\SPIKE13(N)\SPIKE5\SPIKE5\DEBUG\GOCOMMAND.OBJ|C:\USERS\LEWIS\DESKTOP\GAMEFINAL\SPIKE13(N)\SPIKE5\SPIKE5\DEBUG\INVENTORY.OBJ|C:\USERS\LEWIS\DESKTOP\GAMEFINAL\SPIKE13(N)\SPIKE5\SPIKE5\DEBUG\ITEM.OBJ|C:\USERS\LEWIS\DESKTOP\GAMEFINAL\SPIKE13(N)\SPIKE5\SPIKE5\DEBUG\LOOKCOMMAND.OBJ|C:\USERS\LEWIS\DESKTOP\GAMEFINAL\SPIKE13(N)\SPIKE5\SPIKE5\DEBUG\MAIN.OBJ|C:\USERS\LEWIS\DESKTOP\GAMEFINAL\SPIKE13(N)\SPIKE5\SPIKE5\DEBUG\OPENCOMMAND.OBJ|C:\USERS\LEWIS\DESKTOP\GAMEFINAL\SPIKE13(N)\SPIKE5\SPIKE5\DEBUG\ROOM.OBJ|C:\USERS\LEWIS\DESKTOP\GAMEFINAL\SPIKE13(N)\SPIKE5\SPIKE5\DEBUG\STATEMANAGER.OBJ|C:\USERS\LEWIS\DESKTOP\GAMEFINAL\SPIKE13(N)\SPIKE5\SPIKE5\DEBUG\TAKECOMMAND.OBJ
C:\WINDOWS\GLOBALIZATION\SORTING\SORTDEFAULT.NLS
C:\PROGRAM FILES (X86)\WINDOWS KITS\8.1\LIB\WINV6.3\UM\X86\KERNEL32.LIB
C:\PROGRAM FILES (X86)\WINDOWS KITS\8.1\LIB\WINV6.3\UM\X86\USER32.LIB
C:\PROGRAM FILES (X86)\WINDOWS KITS\8.1\LIB\WINV6.3\UM\X86\GDI32.LIB
C:\PROGRAM FILES (X86)\WINDOWS KITS\8.1\LIB\WINV6.3\UM\X86\WINSPOOL.LIB
C:\PROGRAM FILES (X86)\WINDOWS KITS\8.1\LIB\WINV6.3\UM\X86\COMDLG32.LIB
C:\PROGRAM FILES (X86)\WINDOWS KITS\8.1\LIB\WINV6.3\UM\X86\ADVAPI32.LIB
C:\PROGRAM FILES (X86)\WINDOWS KITS\8.1\LIB\WINV6.3\UM\X86\SHELL32.LIB
C:\PROGRAM FILES (X86)\WINDOWS KITS\8.1\LIB\WINV6.3\UM\X86\OLE32.LIB
C:\PROGRAM FILES (X86)\WINDOWS KITS\8.1\LIB\WINV6.3\UM\X86\OLEAUT32.LIB
C:\PROGRAM FILES (X86)\WINDOWS KITS\8.1\LIB\WINV6.3\UM\X86\UUID.LIB
C:\PROGRAM FILES (X86)\WINDOWS KITS\8.1\LIB\WINV6.3\UM\X86\ODBC32.LIB
C:\PROGRAM FILES (X86)\WINDOWS KITS\8.1\LIB\WINV6.3\UM\X86\ODBCCP32.LIB
C:\USERS\LEWIS\DESKTOP\GAMEFINAL\SPIKE13(N)\SPIKE5\SPIKE5\DEBUG\COMMAND.OBJ
C:\USERS\LEWIS\DESKTOP\GAMEFINAL\SPIKE13(N)\SPIKE5\SPIKE5\DEBUG\COMMANDMANAGER.OBJ
C:\USERS\LEWIS\DESKTOP\GAMEFINAL\SPIKE13(N)\SPIKE5\SPIKE5\DEBUG\DOOR.OBJ
C:\USERS\LEWIS\DESKTOP\GAMEFINAL\SPIKE13(N)\SPIKE5\SPIKE5\DEBUG\GAMEPLAYSTATE.OBJ
C:\USERS\LEWIS\DESKTOP\GAMEFINAL\SPIKE13(N)\SPIKE5\SPIKE5\DEBUG\GAMESTATE.OBJ
C:\USERS\LEWIS\DESKTOP\GAMEFINAL\SPIKE13(N)\SPIKE5\SPIKE5\DEBUG\GOCOMMAND.OBJ
C:\USERS\LEWIS\DESKTOP\GAMEFINAL\SPIKE13(N)\SPIKE5\SPIKE5\DEBUG\INVENTORY.OBJ
C:\USERS\LEWIS\DESKTOP\GAMEFINAL\SPIKE13(N)\SPIKE5\SPIKE5\DEBUG\ITEM.OBJ
C:\USERS\LEWIS\DESKTOP\GAMEFINAL\SPIKE13(N)\SPIKE5\SPIKE5\DEBUG\LOOKCOMMAND.OBJ
C:\USERS\LEWIS\DESKTOP\GAMEFINAL\SPIKE13(N)\SPIKE5\SPIKE5\DEBUG\MAIN.OBJ
C:\USERS\LEWIS\DESKTOP\GAMEFINAL\SPIKE13(N)\SPIKE5\SPIKE5\DEBUG\OPENCOMMAND.OBJ
C:\USERS\LEWIS\DESKTOP\GAMEFINAL\SPIKE13(N)\SPIKE5\SPIKE5\DEBUG\ROOM.OBJ
C:\USERS\LEWIS\DESKTOP\GAMEFINAL\SPIKE13(N)\SPIKE5\SPIKE5\DEBUG\STATEMANAGER.OBJ
C:\USERS\LEWIS\DESKTOP\GAMEFINAL\SPIKE13(N)\SPIKE5\SPIKE5\DEBUG\TAKECOMMAND.OBJ
C:\WINDOWS\SYSTEM32\TZRES.DLL
C:\PROGRAM FILES (X86)\MICROSOFT VISUAL STUDIO 14.0\VC\LIB\MSVCPRTD.LIB
C:\PROGRAM FILES (X86)\MICROSOFT VISUAL STUDIO 14.0\VC\LIB\MSVCRTD.LIB
C:\PROGRAM FILES (X86)\MICROSOFT VISUAL STUDIO 14.0\VC\LIB\OLDNAMES.LIB
C:\PROGRAM FILES (X86)\MICROSOFT VISUAL STUDIO 14.0\VC\LIB\VCRUNTIMED.LIB
C:\PROGRAM FILES (X86)\WINDOWS KITS\10\LIB\10.0.10240.0\UCRT\X86\UCRTD.LIB
C:\PROGRAM FILES (X86)\WINDOWS KITS\8.1\BIN\X86\RC.EXE
C:\PROGRAM FILES (X86)\MICROSOFT VISUAL STUDIO 14.0\VC\BIN\CVTRES.EXE
