^H:\2016\SPIKE5\SPIKE5\SPIKE5\MAIN.CPP
/c /ZI /nologo /W3 /WX- /Od /Oy- /D WIN32 /D _DEBUG /D _CONSOLE /D _UNICODE /D UNICODE /Gm /EHsc /RTC1 /MDd /GS /fp:precise /Zc:wchar_t /Zc:forScope /Zc:inline /Fo"DEBUG\\" /Fd"DEBUG\VC140.PDB" /Gd /TP /analyze- H:\2016\SPIKE5\SPIKE5\SPIKE5\MAIN.CPP
^H:\2016\SPIKE5\SPIKE5\SPIKE5\GAMESTATE.CPP
/c /ZI /nologo /W3 /WX- /Od /Oy- /D WIN32 /D _DEBUG /D _CONSOLE /D _UNICODE /D UNICODE /Gm /EHsc /RTC1 /MDd /GS /fp:precise /Zc:wchar_t /Zc:forScope /Zc:inline /Fo"DEBUG\\" /Fd"DEBUG\VC140.PDB" /Gd /TP /analyze- H:\2016\SPIKE5\SPIKE5\SPIKE5\GAMESTATE.CPP
^H:\2016\SPIKE5\SPIKE5\SPIKE5\STATEMANAGER.CPP
/c /ZI /nologo /W3 /WX- /Od /Oy- /D WIN32 /D _DEBUG /D _CONSOLE /D _UNICODE /D UNICODE /Gm /EHsc /RTC1 /MDd /GS /fp:precise /Zc:wchar_t /Zc:forScope /Zc:inline /Fo"DEBUG\\" /Fd"DEBUG\VC140.PDB" /Gd /TP /analyze- H:\2016\SPIKE5\SPIKE5\SPIKE5\STATEMANAGER.CPP
^D:\DROPBOX\GAMESDEV\SPIKE5\SPIKE5\GAMEPLAYSTATE.CPP
/c /ZI /nologo /W3 /WX- /Od /Oy- /D WIN32 /D _DEBUG /D _CONSOLE /D _UNICODE /D UNICODE /Gm /EHsc /RTC1 /MDd /GS /fp:precise /Zc:wchar_t /Zc:forScope /Zc:inline /Fo"DEBUG\\" /Fd"DEBUG\VC140.PDB" /Gd /TP /analyze- D:\DROPBOX\GAMESDEV\SPIKE5\SPIKE5\GAMEPLAYSTATE.CPP
^D:\DROPBOX\GAMESDEV\SPIKE5\SPIKE5\GAMESTATE.CPP
/c /ZI /nologo /W3 /WX- /Od /Oy- /D WIN32 /D _DEBUG /D _CONSOLE /D _UNICODE /D UNICODE /Gm /EHsc /RTC1 /MDd /GS /fp:precise /Zc:wchar_t /Zc:forScope /Zc:inline /Fo"DEBUG\\" /Fd"DEBUG\VC140.PDB" /Gd /TP /analyze- D:\DROPBOX\GAMESDEV\SPIKE5\SPIKE5\GAMESTATE.CPP
^D:\DROPBOX\GAMESDEV\SPIKE5\SPIKE5\MAIN.CPP
/c /ZI /nologo /W3 /WX- /Od /Oy- /D WIN32 /D _DEBUG /D _CONSOLE /D _UNICODE /D UNICODE /Gm /EHsc /RTC1 /MDd /GS /fp:precise /Zc:wchar_t /Zc:forScope /Zc:inline /Fo"DEBUG\\" /Fd"DEBUG\VC140.PDB" /Gd /TP /analyze- D:\DROPBOX\GAMESDEV\SPIKE5\SPIKE5\MAIN.CPP
^D:\DROPBOX\GAMESDEV\SPIKE5\SPIKE5\STATEMANAGER.CPP
/c /ZI /nologo /W3 /WX- /Od /Oy- /D WIN32 /D _DEBUG /D _CONSOLE /D _UNICODE /D UNICODE /Gm /EHsc /RTC1 /MDd /GS /fp:precise /Zc:wchar_t /Zc:forScope /Zc:inline /Fo"DEBUG\\" /Fd"DEBUG\VC140.PDB" /Gd /TP /analyze- D:\DROPBOX\GAMESDEV\SPIKE5\SPIKE5\STATEMANAGER.CPP
^C:\USERS\7382235\DESKTOP\SPIKE5\SPIKE5\GAMEPLAYSTATE.CPP
/c /ZI /nologo /W3 /WX- /Od /Oy- /D WIN32 /D _DEBUG /D _CONSOLE /D _UNICODE /D UNICODE /Gm /EHsc /RTC1 /MDd /GS /fp:precise /Zc:wchar_t /Zc:forScope /Zc:inline /Fo"DEBUG\\" /Fd"DEBUG\VC140.PDB" /Gd /TP /analyze- C:\USERS\7382235\DESKTOP\SPIKE5\SPIKE5\GAMEPLAYSTATE.CPP
^C:\USERS\7382235\DESKTOP\SPIKE5\SPIKE5\GAMESTATE.CPP
/c /ZI /nologo /W3 /WX- /Od /Oy- /D WIN32 /D _DEBUG /D _CONSOLE /D _UNICODE /D UNICODE /Gm /EHsc /RTC1 /MDd /GS /fp:precise /Zc:wchar_t /Zc:forScope /Zc:inline /Fo"DEBUG\\" /Fd"DEBUG\VC140.PDB" /Gd /TP /analyze- C:\USERS\7382235\DESKTOP\SPIKE5\SPIKE5\GAMESTATE.CPP
^C:\USERS\7382235\DESKTOP\SPIKE5\SPIKE5\MAIN.CPP
/c /ZI /nologo /W3 /WX- /Od /Oy- /D WIN32 /D _DEBUG /D _CONSOLE /D _UNICODE /D UNICODE /Gm /EHsc /RTC1 /MDd /GS /fp:precise /Zc:wchar_t /Zc:forScope /Zc:inline /Fo"DEBUG\\" /Fd"DEBUG\VC140.PDB" /Gd /TP /analyze- C:\USERS\7382235\DESKTOP\SPIKE5\SPIKE5\MAIN.CPP
^C:\USERS\7382235\DESKTOP\SPIKE5\SPIKE5\STATEMANAGER.CPP
/c /ZI /nologo /W3 /WX- /Od /Oy- /D WIN32 /D _DEBUG /D _CONSOLE /D _UNICODE /D UNICODE /Gm /EHsc /RTC1 /MDd /GS /fp:precise /Zc:wchar_t /Zc:forScope /Zc:inline /Fo"DEBUG\\" /Fd"DEBUG\VC140.PDB" /Gd /TP /analyze- C:\USERS\7382235\DESKTOP\SPIKE5\SPIKE5\STATEMANAGER.CPP
^C:\USERS\7382235\DESKTOP\SPIKE5\SPIKE5\DOOR.CPP
/c /ZI /nologo /W3 /WX- /Od /Oy- /D WIN32 /D _DEBUG /D _CONSOLE /D _UNICODE /D UNICODE /Gm /EHsc /RTC1 /MDd /GS /fp:precise /Zc:wchar_t /Zc:forScope /Zc:inline /Fo"DEBUG\\" /Fd"DEBUG\VC140.PDB" /Gd /TP /analyze- C:\USERS\7382235\DESKTOP\SPIKE5\SPIKE5\DOOR.CPP
^C:\USERS\7382235\DESKTOP\SPIKE5\SPIKE5\ROOM.CPP
/c /ZI /nologo /W3 /WX- /Od /Oy- /D WIN32 /D _DEBUG /D _CONSOLE /D _UNICODE /D UNICODE /Gm /EHsc /RTC1 /MDd /GS /fp:precise /Zc:wchar_t /Zc:forScope /Zc:inline /Fo"DEBUG\\" /Fd"DEBUG\VC140.PDB" /Gd /TP /analyze- C:\USERS\7382235\DESKTOP\SPIKE5\SPIKE5\ROOM.CPP
^C:\USERS\LEWIS\DESKTOP\SPIKE5\SPIKE5\DOOR.CPP
/c /ZI /nologo /W3 /WX- /Od /Oy- /D WIN32 /D _DEBUG /D _CONSOLE /D _UNICODE /D UNICODE /Gm /EHsc /RTC1 /MDd /GS /fp:precise /Zc:wchar_t /Zc:forScope /Zc:inline /Fo"DEBUG\\" /Fd"DEBUG\VC140.PDB" /Gd /TP /analyze- C:\USERS\LEWIS\DESKTOP\SPIKE5\SPIKE5\DOOR.CPP
^C:\USERS\LEWIS\DESKTOP\SPIKE5\SPIKE5\GAMEPLAYSTATE.CPP
/c /ZI /nologo /W3 /WX- /Od /Oy- /D WIN32 /D _DEBUG /D _CONSOLE /D _UNICODE /D UNICODE /Gm /EHsc /RTC1 /MDd /GS /fp:precise /Zc:wchar_t /Zc:forScope /Zc:inline /Fo"DEBUG\\" /Fd"DEBUG\VC140.PDB" /Gd /TP /analyze- C:\USERS\LEWIS\DESKTOP\SPIKE5\SPIKE5\GAMEPLAYSTATE.CPP
^C:\USERS\LEWIS\DESKTOP\SPIKE5\SPIKE5\GAMESTATE.CPP
/c /ZI /nologo /W3 /WX- /Od /Oy- /D WIN32 /D _DEBUG /D _CONSOLE /D _UNICODE /D UNICODE /Gm /EHsc /RTC1 /MDd /GS /fp:precise /Zc:wchar_t /Zc:forScope /Zc:inline /Fo"DEBUG\\" /Fd"DEBUG\VC140.PDB" /Gd /TP /analyze- C:\USERS\LEWIS\DESKTOP\SPIKE5\SPIKE5\GAMESTATE.CPP
^C:\USERS\LEWIS\DESKTOP\SPIKE5\SPIKE5\MAIN.CPP
/c /ZI /nologo /W3 /WX- /Od /Oy- /D WIN32 /D _DEBUG /D _CONSOLE /D _UNICODE /D UNICODE /Gm /EHsc /RTC1 /MDd /GS /fp:precise /Zc:wchar_t /Zc:forScope /Zc:inline /Fo"DEBUG\\" /Fd"DEBUG\VC140.PDB" /Gd /TP /analyze- C:\USERS\LEWIS\DESKTOP\SPIKE5\SPIKE5\MAIN.CPP
^C:\USERS\LEWIS\DESKTOP\SPIKE5\SPIKE5\ROOM.CPP
/c /ZI /nologo /W3 /WX- /Od /Oy- /D WIN32 /D _DEBUG /D _CONSOLE /D _UNICODE /D UNICODE /Gm /EHsc /RTC1 /MDd /GS /fp:precise /Zc:wchar_t /Zc:forScope /Zc:inline /Fo"DEBUG\\" /Fd"DEBUG\VC140.PDB" /Gd /TP /analyze- C:\USERS\LEWIS\DESKTOP\SPIKE5\SPIKE5\ROOM.CPP
^C:\USERS\LEWIS\DESKTOP\SPIKE5\SPIKE5\STATEMANAGER.CPP
/c /ZI /nologo /W3 /WX- /Od /Oy- /D WIN32 /D _DEBUG /D _CONSOLE /D _UNICODE /D UNICODE /Gm /EHsc /RTC1 /MDd /GS /fp:precise /Zc:wchar_t /Zc:forScope /Zc:inline /Fo"DEBUG\\" /Fd"DEBUG\VC140.PDB" /Gd /TP /analyze- C:\USERS\LEWIS\DESKTOP\SPIKE5\SPIKE5\STATEMANAGER.CPP
^C:\USERS\LEWIS\DESKTOP\SPIKE5\SPIKE5\DAMAGE.CPP
/c /ZI /nologo /W3 /WX- /Od /Oy- /D WIN32 /D _DEBUG /D _CONSOLE /D _UNICODE /D UNICODE /Gm /EHsc /RTC1 /MDd /GS /fp:precise /Zc:wchar_t /Zc:forScope /Zc:inline /Fo"DEBUG\\" /Fd"DEBUG\VC140.PDB" /Gd /TP /analyze- C:\USERS\LEWIS\DESKTOP\SPIKE5\SPIKE5\DAMAGE.CPP
^C:\USERS\LEWIS\DESKTOP\SPIKE5\SPIKE5\HEALTH.CPP
/c /ZI /nologo /W3 /WX- /Od /Oy- /D WIN32 /D _DEBUG /D _CONSOLE /D _UNICODE /D UNICODE /Gm /EHsc /RTC1 /MDd /GS /fp:precise /Zc:wchar_t /Zc:forScope /Zc:inline /Fo"DEBUG\\" /Fd"DEBUG\VC140.PDB" /Gd /TP /analyze- C:\USERS\LEWIS\DESKTOP\SPIKE5\SPIKE5\HEALTH.CPP
^C:\USERS\LEWIS\DESKTOP\SPIKE5\SPIKE5\CANBEATTACKED.CPP
/c /ZI /nologo /W3 /WX- /Od /Oy- /D WIN32 /D _DEBUG /D _CONSOLE /D _UNICODE /D UNICODE /Gm /EHsc /RTC1 /MDd /GS /fp:precise /Zc:wchar_t /Zc:forScope /Zc:inline /Fo"DEBUG\\" /Fd"DEBUG\VC140.PDB" /Gd /TP /analyze- C:\USERS\LEWIS\DESKTOP\SPIKE5\SPIKE5\CANBEATTACKED.CPP
^C:\USERS\LEWIS\DESKTOP\SPIKE5\SPIKE5\BOX.CPP
/c /ZI /nologo /W3 /WX- /Od /Oy- /D WIN32 /D _DEBUG /D _CONSOLE /D _UNICODE /D UNICODE /Gm /EHsc /RTC1 /MDd /GS /fp:precise /Zc:wchar_t /Zc:forScope /Zc:inline /Fo"DEBUG\\" /Fd"DEBUG\VC140.PDB" /Gd /TP /analyze- C:\USERS\LEWIS\DESKTOP\SPIKE5\SPIKE5\BOX.CPP
^C:\USERS\LEWIS\DESKTOP\SPIKE5\SPIKE5\PLAYER.CPP
/c /ZI /nologo /W3 /WX- /Od /Oy- /D WIN32 /D _DEBUG /D _CONSOLE /D _UNICODE /D UNICODE /Gm /EHsc /RTC1 /MDd /GS /fp:precise /Zc:wchar_t /Zc:forScope /Zc:inline /Fo"DEBUG\\" /Fd"DEBUG\VC140.PDB" /Gd /TP /analyze- C:\USERS\LEWIS\DESKTOP\SPIKE5\SPIKE5\PLAYER.CPP
^\\MAC\HOME\DESKTOP\VSCODE\COMPONE\SPIKE5 3\SPIKE5\BOX.CPP
/c /ZI /nologo /W3 /WX- /Od /Oy- /D WIN32 /D _DEBUG /D _CONSOLE /D _UNICODE /D UNICODE /Gm /EHsc /RTC1 /MDd /GS /fp:precise /Zc:wchar_t /Zc:forScope /Zc:inline /Fo"DEBUG\\" /Fd"DEBUG\VC140.PDB" /Gd /TP /analyze- \\MAC\HOME\DESKTOP\VSCODE\COMPONE\SPIKE5 3\SPIKE5\BOX.CPP
^\\MAC\HOME\DESKTOP\VSCODE\COMPONE\SPIKE5 3\SPIKE5\CANBEATTACKED.CPP
/c /ZI /nologo /W3 /WX- /Od /Oy- /D WIN32 /D _DEBUG /D _CONSOLE /D _UNICODE /D UNICODE /Gm /EHsc /RTC1 /MDd /GS /fp:precise /Zc:wchar_t /Zc:forScope /Zc:inline /Fo"DEBUG\\" /Fd"DEBUG\VC140.PDB" /Gd /TP /analyze- \\MAC\HOME\DESKTOP\VSCODE\COMPONE\SPIKE5 3\SPIKE5\CANBEATTACKED.CPP
^\\MAC\HOME\DESKTOP\VSCODE\COMPONE\SPIKE5 3\SPIKE5\DAMAGE.CPP
/c /ZI /nologo /W3 /WX- /Od /Oy- /D WIN32 /D _DEBUG /D _CONSOLE /D _UNICODE /D UNICODE /Gm /EHsc /RTC1 /MDd /GS /fp:precise /Zc:wchar_t /Zc:forScope /Zc:inline /Fo"DEBUG\\" /Fd"DEBUG\VC140.PDB" /Gd /TP /analyze- \\MAC\HOME\DESKTOP\VSCODE\COMPONE\SPIKE5 3\SPIKE5\DAMAGE.CPP
^\\MAC\HOME\DESKTOP\VSCODE\COMPONE\SPIKE5 3\SPIKE5\DOOR.CPP
/c /ZI /nologo /W3 /WX- /Od /Oy- /D WIN32 /D _DEBUG /D _CONSOLE /D _UNICODE /D UNICODE /Gm /EHsc /RTC1 /MDd /GS /fp:precise /Zc:wchar_t /Zc:forScope /Zc:inline /Fo"DEBUG\\" /Fd"DEBUG\VC140.PDB" /Gd /TP /analyze- \\MAC\HOME\DESKTOP\VSCODE\COMPONE\SPIKE5 3\SPIKE5\DOOR.CPP
^\\MAC\HOME\DESKTOP\VSCODE\COMPONE\SPIKE5 3\SPIKE5\GAMEPLAYSTATE.CPP
/c /ZI /nologo /W3 /WX- /Od /Oy- /D WIN32 /D _DEBUG /D _CONSOLE /D _UNICODE /D UNICODE /Gm /EHsc /RTC1 /MDd /GS /fp:precise /Zc:wchar_t /Zc:forScope /Zc:inline /Fo"DEBUG\\" /Fd"DEBUG\VC140.PDB" /Gd /TP /analyze- \\MAC\HOME\DESKTOP\VSCODE\COMPONE\SPIKE5 3\SPIKE5\GAMEPLAYSTATE.CPP
^\\MAC\HOME\DESKTOP\VSCODE\COMPONE\SPIKE5 3\SPIKE5\GAMESTATE.CPP
/c /ZI /nologo /W3 /WX- /Od /Oy- /D WIN32 /D _DEBUG /D _CONSOLE /D _UNICODE /D UNICODE /Gm /EHsc /RTC1 /MDd /GS /fp:precise /Zc:wchar_t /Zc:forScope /Zc:inline /Fo"DEBUG\\" /Fd"DEBUG\VC140.PDB" /Gd /TP /analyze- \\MAC\HOME\DESKTOP\VSCODE\COMPONE\SPIKE5 3\SPIKE5\GAMESTATE.CPP
^\\MAC\HOME\DESKTOP\VSCODE\COMPONE\SPIKE5 3\SPIKE5\HEALTH.CPP
/c /ZI /nologo /W3 /WX- /Od /Oy- /D WIN32 /D _DEBUG /D _CONSOLE /D _UNICODE /D UNICODE /Gm /EHsc /RTC1 /MDd /GS /fp:precise /Zc:wchar_t /Zc:forScope /Zc:inline /Fo"DEBUG\\" /Fd"DEBUG\VC140.PDB" /Gd /TP /analyze- \\MAC\HOME\DESKTOP\VSCODE\COMPONE\SPIKE5 3\SPIKE5\HEALTH.CPP
^\\MAC\HOME\DESKTOP\VSCODE\COMPONE\SPIKE5 3\SPIKE5\MAIN.CPP
/c /ZI /nologo /W3 /WX- /Od /Oy- /D WIN32 /D _DEBUG /D _CONSOLE /D _UNICODE /D UNICODE /Gm /EHsc /RTC1 /MDd /GS /fp:precise /Zc:wchar_t /Zc:forScope /Zc:inline /Fo"DEBUG\\" /Fd"DEBUG\VC140.PDB" /Gd /TP /analyze- \\MAC\HOME\DESKTOP\VSCODE\COMPONE\SPIKE5 3\SPIKE5\MAIN.CPP
^\\MAC\HOME\DESKTOP\VSCODE\COMPONE\SPIKE5 3\SPIKE5\PLAYER.CPP
/c /ZI /nologo /W3 /WX- /Od /Oy- /D WIN32 /D _DEBUG /D _CONSOLE /D _UNICODE /D UNICODE /Gm /EHsc /RTC1 /MDd /GS /fp:precise /Zc:wchar_t /Zc:forScope /Zc:inline /Fo"DEBUG\\" /Fd"DEBUG\VC140.PDB" /Gd /TP /analyze- \\MAC\HOME\DESKTOP\VSCODE\COMPONE\SPIKE5 3\SPIKE5\PLAYER.CPP
^\\MAC\HOME\DESKTOP\VSCODE\COMPONE\SPIKE5 3\SPIKE5\ROOM.CPP
/c /ZI /nologo /W3 /WX- /Od /Oy- /D WIN32 /D _DEBUG /D _CONSOLE /D _UNICODE /D UNICODE /Gm /EHsc /RTC1 /MDd /GS /fp:precise /Zc:wchar_t /Zc:forScope /Zc:inline /Fo"DEBUG\\" /Fd"DEBUG\VC140.PDB" /Gd /TP /analyze- \\MAC\HOME\DESKTOP\VSCODE\COMPONE\SPIKE5 3\SPIKE5\ROOM.CPP
^\\MAC\HOME\DESKTOP\VSCODE\COMPONE\SPIKE5 3\SPIKE5\STATEMANAGER.CPP
/c /ZI /nologo /W3 /WX- /Od /Oy- /D WIN32 /D _DEBUG /D _CONSOLE /D _UNICODE /D UNICODE /Gm /EHsc /RTC1 /MDd /GS /fp:precise /Zc:wchar_t /Zc:forScope /Zc:inline /Fo"DEBUG\\" /Fd"DEBUG\VC140.PDB" /Gd /TP /analyze- \\MAC\HOME\DESKTOP\VSCODE\COMPONE\SPIKE5 3\SPIKE5\STATEMANAGER.CPP
^\\MAC\HOME\DESKTOP\VSCODE\COMPONE\SPIKE5 3\SPIKE5\MESSAGING.CPP
/c /ZI /nologo /W3 /WX- /Od /Oy- /D WIN32 /D _DEBUG /D _CONSOLE /D _UNICODE /D UNICODE /Gm /EHsc /RTC1 /MDd /GS /fp:precise /Zc:wchar_t /Zc:forScope /Zc:inline /Fo"DEBUG\\" /Fd"DEBUG\VC140.PDB" /Gd /TP /analyze- \\MAC\HOME\DESKTOP\VSCODE\COMPONE\SPIKE5 3\SPIKE5\MESSAGING.CPP
^C:\USERS\LEWIS\DESKTOP\GAMEFINAL\SPIKE13(N)\SPIKE5 3\SPIKE5\BOX.CPP
/c /ZI /nologo /W3 /WX- /Od /Oy- /D WIN32 /D _DEBUG /D _CONSOLE /D _UNICODE /D UNICODE /Gm /EHsc /RTC1 /MDd /GS /fp:precise /Zc:wchar_t /Zc:forScope /Zc:inline /Fo"DEBUG\\" /Fd"DEBUG\VC140.PDB" /Gd /TP /analyze- C:\USERS\LEWIS\DESKTOP\GAMEFINAL\SPIKE13(N)\SPIKE5 3\SPIKE5\BOX.CPP
^C:\USERS\LEWIS\DESKTOP\GAMEFINAL\SPIKE13(N)\SPIKE5 3\SPIKE5\CANBEATTACKED.CPP
/c /ZI /nologo /W3 /WX- /Od /Oy- /D WIN32 /D _DEBUG /D _CONSOLE /D _UNICODE /D UNICODE /Gm /EHsc /RTC1 /MDd /GS /fp:precise /Zc:wchar_t /Zc:forScope /Zc:inline /Fo"DEBUG\\" /Fd"DEBUG\VC140.PDB" /Gd /TP /analyze- C:\USERS\LEWIS\DESKTOP\GAMEFINAL\SPIKE13(N)\SPIKE5 3\SPIKE5\CANBEATTACKED.CPP
^C:\USERS\LEWIS\DESKTOP\GAMEFINAL\SPIKE13(N)\SPIKE5 3\SPIKE5\DAMAGE.CPP
/c /ZI /nologo /W3 /WX- /Od /Oy- /D WIN32 /D _DEBUG /D _CONSOLE /D _UNICODE /D UNICODE /Gm /EHsc /RTC1 /MDd /GS /fp:precise /Zc:wchar_t /Zc:forScope /Zc:inline /Fo"DEBUG\\" /Fd"DEBUG\VC140.PDB" /Gd /TP /analyze- C:\USERS\LEWIS\DESKTOP\GAMEFINAL\SPIKE13(N)\SPIKE5 3\SPIKE5\DAMAGE.CPP
^C:\USERS\LEWIS\DESKTOP\GAMEFINAL\SPIKE13(N)\SPIKE5 3\SPIKE5\DOOR.CPP
/c /ZI /nologo /W3 /WX- /Od /Oy- /D WIN32 /D _DEBUG /D _CONSOLE /D _UNICODE /D UNICODE /Gm /EHsc /RTC1 /MDd /GS /fp:precise /Zc:wchar_t /Zc:forScope /Zc:inline /Fo"DEBUG\\" /Fd"DEBUG\VC140.PDB" /Gd /TP /analyze- C:\USERS\LEWIS\DESKTOP\GAMEFINAL\SPIKE13(N)\SPIKE5 3\SPIKE5\DOOR.CPP
^C:\USERS\LEWIS\DESKTOP\GAMEFINAL\SPIKE13(N)\SPIKE5 3\SPIKE5\GAMEPLAYSTATE.CPP
/c /ZI /nologo /W3 /WX- /Od /Oy- /D WIN32 /D _DEBUG /D _CONSOLE /D _UNICODE /D UNICODE /Gm /EHsc /RTC1 /MDd /GS /fp:precise /Zc:wchar_t /Zc:forScope /Zc:inline /Fo"DEBUG\\" /Fd"DEBUG\VC140.PDB" /Gd /TP /analyze- C:\USERS\LEWIS\DESKTOP\GAMEFINAL\SPIKE13(N)\SPIKE5 3\SPIKE5\GAMEPLAYSTATE.CPP
^C:\USERS\LEWIS\DESKTOP\GAMEFINAL\SPIKE13(N)\SPIKE5 3\SPIKE5\GAMESTATE.CPP
/c /ZI /nologo /W3 /WX- /Od /Oy- /D WIN32 /D _DEBUG /D _CONSOLE /D _UNICODE /D UNICODE /Gm /EHsc /RTC1 /MDd /GS /fp:precise /Zc:wchar_t /Zc:forScope /Zc:inline /Fo"DEBUG\\" /Fd"DEBUG\VC140.PDB" /Gd /TP /analyze- C:\USERS\LEWIS\DESKTOP\GAMEFINAL\SPIKE13(N)\SPIKE5 3\SPIKE5\GAMESTATE.CPP
^C:\USERS\LEWIS\DESKTOP\GAMEFINAL\SPIKE13(N)\SPIKE5 3\SPIKE5\HEALTH.CPP
/c /ZI /nologo /W3 /WX- /Od /Oy- /D WIN32 /D _DEBUG /D _CONSOLE /D _UNICODE /D UNICODE /Gm /EHsc /RTC1 /MDd /GS /fp:precise /Zc:wchar_t /Zc:forScope /Zc:inline /Fo"DEBUG\\" /Fd"DEBUG\VC140.PDB" /Gd /TP /analyze- C:\USERS\LEWIS\DESKTOP\GAMEFINAL\SPIKE13(N)\SPIKE5 3\SPIKE5\HEALTH.CPP
^C:\USERS\LEWIS\DESKTOP\GAMEFINAL\SPIKE13(N)\SPIKE5 3\SPIKE5\MAIN.CPP
/c /ZI /nologo /W3 /WX- /Od /Oy- /D WIN32 /D _DEBUG /D _CONSOLE /D _UNICODE /D UNICODE /Gm /EHsc /RTC1 /MDd /GS /fp:precise /Zc:wchar_t /Zc:forScope /Zc:inline /Fo"DEBUG\\" /Fd"DEBUG\VC140.PDB" /Gd /TP /analyze- C:\USERS\LEWIS\DESKTOP\GAMEFINAL\SPIKE13(N)\SPIKE5 3\SPIKE5\MAIN.CPP
^C:\USERS\LEWIS\DESKTOP\GAMEFINAL\SPIKE13(N)\SPIKE5 3\SPIKE5\MESSAGING.CPP
/c /ZI /nologo /W3 /WX- /Od /Oy- /D WIN32 /D _DEBUG /D _CONSOLE /D _UNICODE /D UNICODE /Gm /EHsc /RTC1 /MDd /GS /fp:precise /Zc:wchar_t /Zc:forScope /Zc:inline /Fo"DEBUG\\" /Fd"DEBUG\VC140.PDB" /Gd /TP /analyze- C:\USERS\LEWIS\DESKTOP\GAMEFINAL\SPIKE13(N)\SPIKE5 3\SPIKE5\MESSAGING.CPP
^C:\USERS\LEWIS\DESKTOP\GAMEFINAL\SPIKE13(N)\SPIKE5 3\SPIKE5\PLAYER.CPP
/c /ZI /nologo /W3 /WX- /Od /Oy- /D WIN32 /D _DEBUG /D _CONSOLE /D _UNICODE /D UNICODE /Gm /EHsc /RTC1 /MDd /GS /fp:precise /Zc:wchar_t /Zc:forScope /Zc:inline /Fo"DEBUG\\" /Fd"DEBUG\VC140.PDB" /Gd /TP /analyze- C:\USERS\LEWIS\DESKTOP\GAMEFINAL\SPIKE13(N)\SPIKE5 3\SPIKE5\PLAYER.CPP
^C:\USERS\LEWIS\DESKTOP\GAMEFINAL\SPIKE13(N)\SPIKE5 3\SPIKE5\ROOM.CPP
/c /ZI /nologo /W3 /WX- /Od /Oy- /D WIN32 /D _DEBUG /D _CONSOLE /D _UNICODE /D UNICODE /Gm /EHsc /RTC1 /MDd /GS /fp:precise /Zc:wchar_t /Zc:forScope /Zc:inline /Fo"DEBUG\\" /Fd"DEBUG\VC140.PDB" /Gd /TP /analyze- C:\USERS\LEWIS\DESKTOP\GAMEFINAL\SPIKE13(N)\SPIKE5 3\SPIKE5\ROOM.CPP
^C:\USERS\LEWIS\DESKTOP\GAMEFINAL\SPIKE13(N)\SPIKE5 3\SPIKE5\STATEMANAGER.CPP
/c /ZI /nologo /W3 /WX- /Od /Oy- /D WIN32 /D _DEBUG /D _CONSOLE /D _UNICODE /D UNICODE /Gm /EHsc /RTC1 /MDd /GS /fp:precise /Zc:wchar_t /Zc:forScope /Zc:inline /Fo"DEBUG\\" /Fd"DEBUG\VC140.PDB" /Gd /TP /analyze- C:\USERS\LEWIS\DESKTOP\GAMEFINAL\SPIKE13(N)\SPIKE5 3\SPIKE5\STATEMANAGER.CPP
